Computer Organization/8 Bit Multiplier/simulation/qsim/final.msim.vcd
$comment
	File created using the following command:
		vcd file final.msim.vcd -direction
$end
$date
	Thu Dec 06 20:50:18 2018
$end
$version
	ModelSim Version 10.4d
$end
$timescale
	1ps
$end

$scope module final_vlg_vec_tst $end
$var reg 1 ! a0 $end
$var reg 1 " a1 $end
$var reg 1 # a2 $end
$var reg 1 $ a3 $end
$var reg 1 % a4 $end
$var reg 1 & a5 $end
$var reg 1 ' a6 $end
$var reg 1 ( a7 $end
$var reg 1 ) b0 $end
$var reg 1 * b1 $end
$var reg 1 + b2 $end
$var reg 1 , b3 $end
$var reg 1 - b4 $end
$var reg 1 . b5 $end
$var reg 1 / b6 $end
$var reg 1 0 b7 $end
$var wire 1 1 output0 $end
$var wire 1 2 output1 $end
$var wire 1 3 output3 $end
$var wire 1 4 output4 $end
$var wire 1 5 output5 $end
$var wire 1 6 output6 $end
$var wire 1 7 output7 $end
$var wire 1 8 output8 $end
$var wire 1 9 output9 $end
$var wire 1 : output10 $end
$var wire 1 ; output11 $end
$var wire 1 < output12 $end
$var wire 1 = output13 $end
$var wire 1 > output14 $end
$var wire 1 ? output15 $end
$var wire 1 @ output16 $end

$scope module i1 $end
$var wire 1 A gnd $end
$var wire 1 B vcc $end
$var wire 1 C unknown $end
$var tri1 1 D devclrn $end
$var tri1 1 E devpor $end
$var tri1 1 F devoe $end
$var wire 1 G output1~output_o $end
$var wire 1 H output0~output_o $end
$var wire 1 I output3~output_o $end
$var wire 1 J output4~output_o $end
$var wire 1 K output5~output_o $end
$var wire 1 L output6~output_o $end
$var wire 1 M output7~output_o $end
$var wire 1 N output8~output_o $end
$var wire 1 O output9~output_o $end
$var wire 1 P output10~output_o $end
$var wire 1 Q output11~output_o $end
$var wire 1 R output12~output_o $end
$var wire 1 S output13~output_o $end
$var wire 1 T output14~output_o $end
$var wire 1 U output15~output_o $end
$var wire 1 V output16~output_o $end
$var wire 1 W a1~input_o $end
$var wire 1 X b0~input_o $end
$var wire 1 Y b1~input_o $end
$var wire 1 Z a0~input_o $end
$var wire 1 [ inst|inst8|inst4|inst~combout $end
$var wire 1 \ inst5~combout $end
$var wire 1 ] a2~input_o $end
$var wire 1 ^ inst|inst9|inst4|inst~4_combout $end
$var wire 1 _ inst|inst9|inst4|inst~5_combout $end
$var wire 1 ` b2~input_o $end
$var wire 1 a inst19|inst8|inst4|inst~combout $end
$var wire 1 b inst32~combout $end
$var wire 1 c inst11~combout $end
$var wire 1 d inst|inst9|inst2~3_combout $end
$var wire 1 e inst|inst9|inst2~9_combout $end
$var wire 1 f a3~input_o $end
$var wire 1 g inst|inst10|inst4|inst~combout $end
$var wire 1 h inst37~combout $end
$var wire 1 i inst19|inst9|inst4|inst~combout $end
$var wire 1 j b3~input_o $end
$var wire 1 k inst25|inst8|inst4|inst~combout $end
$var wire 1 l b4~input_o $end
$var wire 1 m inst33~combout $end
$var wire 1 n a4~input_o $end
$var wire 1 o inst|inst10|inst2~0_combout $end
$var wire 1 p inst|inst11|inst3|inst~combout $end
$var wire 1 q inst10~combout $end
$var wire 1 r inst30~combout $end
$var wire 1 s inst19|inst9|inst2~0_combout $end
$var wire 1 t inst19|inst10|inst4|inst~combout $end
$var wire 1 u inst36~combout $end
$var wire 1 v inst25|inst9|inst4|inst~combout $end
$var wire 1 w inst28|inst8|inst4|inst~combout $end
$var wire 1 x inst45~combout $end
$var wire 1 y inst46~combout $end
$var wire 1 z inst38~combout $end
$var wire 1 { inst35~combout $end
$var wire 1 | inst25|inst9|inst2~0_combout $end
$var wire 1 } inst19|inst10|inst2~0_combout $end
$var wire 1 ~ a5~input_o $end
$var wire 1 !! inst|inst11|inst2~0_combout $end
$var wire 1 "! inst|inst12|inst3|inst~combout $end
$var wire 1 #! inst19|inst11|inst3|inst~combout $end
$var wire 1 $! inst25|inst10|inst4|inst~0_combout $end
$var wire 1 %! inst28|inst9|inst4|inst~combout $end
$var wire 1 &! b5~input_o $end
$var wire 1 '! inst53|inst8|inst4|inst~combout $end
$var wire 1 (! inst28|inst9|inst2~0_combout $end
$var wire 1 )! inst39~combout $end
$var wire 1 *! inst47~combout $end
$var wire 1 +! inst12~combout $end
$var wire 1 ,! inst19|inst11|inst2~0_combout $end
$var wire 1 -! inst|inst12|inst2~0_combout $end
$var wire 1 .! a6~input_o $end
$var wire 1 /! inst|inst13|inst3|inst~combout $end
$var wire 1 0! inst19|inst12|inst3|inst~combout $end
$var wire 1 1! inst25|inst10|inst2~0_combout $end
$var wire 1 2! inst25|inst11|inst3|inst~combout $end
$var wire 1 3! inst28|inst10|inst4|inst~combout $end
$var wire 1 4! inst54~combout $end
$var wire 1 5! inst55~combout $end
$var wire 1 6! inst53|inst9|inst4|inst~combout $end
$var wire 1 7! b6~input_o $end
$var wire 1 8! inst70|inst8|inst4|inst~combout $end
$var wire 1 9! b7~input_o $end
$var wire 1 :! inst62~combout $end
$var wire 1 ;! inst63~combout $end
$var wire 1 <! inst56~combout $end
$var wire 1 =! inst29~combout $end
$var wire 1 >! inst25|inst11|inst2~0_combout $end
$var wire 1 ?! inst16~combout $end
$var wire 1 @! inst19|inst12|inst2~0_combout $end
$var wire 1 A! inst|inst13|inst2~0_combout $end
$var wire 1 B! a7~input_o $end
$var wire 1 C! inst|inst14|inst3|inst~combout $end
$var wire 1 D! inst19|inst13|inst3|inst~combout $end
$var wire 1 E! inst25|inst12|inst3|inst~combout $end
$var wire 1 F! inst28|inst10|inst2~0_combout $end
$var wire 1 G! inst28|inst11|inst3|inst~combout $end
$var wire 1 H! inst53|inst9|inst2~0_combout $end
$var wire 1 I! inst48~combout $end
$var wire 1 J! inst53|inst10|inst4|inst~combout $end
$var wire 1 K! inst70|inst9|inst4|inst~combout $end
$var wire 1 L! inst71|inst8|inst4|inst~combout $end
$var wire 1 M! inst72~combout $end
$var wire 1 N! inst64~combout $end
$var wire 1 O! inst57~combout $end
$var wire 1 P! inst70|inst9|inst2~0_combout $end
$var wire 1 Q! inst53|inst10|inst2~0_combout $end
$var wire 1 R! inst40~combout $end
$var wire 1 S! inst34~combout $end
$var wire 1 T! inst25|inst12|inst2~0_combout $end
$var wire 1 U! inst15~combout $end
$var wire 1 V! inst|inst14|inst2~0_combout $end
$var wire 1 W! inst19|inst13|inst2~0_combout $end
$var wire 1 X! inst19|inst14|inst3|inst~2_combout $end
$var wire 1 Y! inst25|inst13|inst3|inst~combout $end
$var wire 1 Z! inst28|inst11|inst2~0_combout $end
$var wire 1 [! inst28|inst12|inst3|inst~combout $end
$var wire 1 \! inst53|inst11|inst3|inst~combout $end
$var wire 1 ]! inst70|inst10|inst4|inst~combout $end
$var wire 1 ^! inst73~combout $end
$var wire 1 _! inst71|inst9|inst4|inst~combout $end
$var wire 1 `! inst49~combout $end
$var wire 1 a! inst53|inst11|inst2~0_combout $end
$var wire 1 b! inst31~combout $end
$var wire 1 c! inst17~combout $end
$var wire 1 d! inst19|inst15|inst3|inst~combout $end
$var wire 1 e! inst41~combout $end
$var wire 1 f! inst25|inst13|inst2~0_combout $end
$var wire 1 g! inst25|inst14|inst3|inst~combout $end
$var wire 1 h! inst28|inst12|inst2~0_combout $end
$var wire 1 i! inst28|inst13|inst3|inst~combout $end
$var wire 1 j! inst53|inst12|inst3|inst~combout $end
$var wire 1 k! inst70|inst10|inst2~0_combout $end
$var wire 1 l! inst70|inst11|inst3|inst~combout $end
$var wire 1 m! inst74~combout $end
$var wire 1 n! inst65~combout $end
$var wire 1 o! inst71|inst9|inst2~0_combout $end
$var wire 1 p! inst71|inst10|inst4|inst~combout $end
$var wire 1 q! inst58~combout $end
$var wire 1 r! inst70|inst11|inst2~0_combout $end
$var wire 1 s! inst27~combout $end
$var wire 1 t! inst19|inst14|inst2~0_combout $end
$var wire 1 u! inst19|inst15|inst2~0_combout $end
$var wire 1 v! inst42~combout $end
$var wire 1 w! inst25|inst14|inst2~0_combout $end
$var wire 1 x! inst25|inst15|inst3|inst~combout $end
$var wire 1 y! inst50~combout $end
$var wire 1 z! inst28|inst13|inst2~0_combout $end
$var wire 1 {! inst28|inst14|inst3|inst~combout $end
$var wire 1 |! inst53|inst12|inst2~0_combout $end
$var wire 1 }! inst53|inst13|inst3|inst~combout $end
$var wire 1 ~! inst70|inst12|inst3|inst~combout $end
$var wire 1 !" inst71|inst10|inst2~0_combout $end
$var wire 1 "" inst66~combout $end
$var wire 1 #" inst75~combout $end
$var wire 1 $" inst71|inst11|inst4|inst~combout $end
$var wire 1 %" inst76~combout $end
$var wire 1 &" inst67~combout $end
$var wire 1 '" inst71|inst11|inst2~0_combout $end
$var wire 1 (" inst59~combout $end
$var wire 1 )" inst70|inst12|inst2~0_combout $end
$var wire 1 *" inst51~combout $end
$var wire 1 +" inst53|inst13|inst2~0_combout $end
$var wire 1 ," inst25|inst15|inst2~0_combout $end
$var wire 1 -" inst43~combout $end
$var wire 1 ." inst28|inst14|inst2~0_combout $end
$var wire 1 /" inst28|inst15|inst3|inst~combout $end
$var wire 1 0" inst53|inst14|inst3|inst~combout $end
$var wire 1 1" inst70|inst13|inst3|inst~combout $end
$var wire 1 2" inst71|inst12|inst4|inst~combout $end
$var wire 1 3" inst77~combout $end
$var wire 1 4" inst71|inst12|inst2~0_combout $end
$var wire 1 5" inst60~combout $end
$var wire 1 6" inst70|inst13|inst2~0_combout $end
$var wire 1 7" inst52~combout $end
$var wire 1 8" inst53|inst14|inst2~0_combout $end
$var wire 1 9" inst28|inst15|inst2~0_combout $end
$var wire 1 :" inst53|inst15|inst3|inst~combout $end
$var wire 1 ;" inst70|inst14|inst3|inst~combout $end
$var wire 1 <" inst68~combout $end
$var wire 1 =" inst71|inst13|inst4|inst~0_combout $end
$var wire 1 >" inst71|inst13|inst2~0_combout $end
$var wire 1 ?" inst78~combout $end
$var wire 1 @" inst61~combout $end
$var wire 1 A" inst70|inst14|inst2~0_combout $end
$var wire 1 B" inst53|inst15|inst2~0_combout $end
$var wire 1 C" inst70|inst15|inst3|inst~combout $end
$var wire 1 D" inst69~combout $end
$var wire 1 E" inst71|inst14|inst4|inst~combout $end
$var wire 1 F" inst70|inst15|inst2~0_combout $end
$var wire 1 G" inst71|inst14|inst2~0_combout $end
$var wire 1 H" inst71|inst15|inst4|inst~0_combout $end
$var wire 1 I" inst71|inst15|inst2~0_combout $end
$upscope $end
$upscope $end
$enddefinitions $end
#0
$dumpvars
0!
0"
0#
0$
0%
0&
0'
0(
0)
0*
0+
0,
0-
0.
0/
00
01
02
03
04
05
06
07
08
09
0:
0;
0<
0=
0>
0?
0@
0A
1B
xC
1D
1E
1F
0G
0H
0I
0J
0K
0L
0M
0N
0O
0P
0Q
0R
0S
0T
0U
0V
0W
0X
0Y
0Z
0[
0\
0]
0^
0_
0`
0a
0b
0c
0d
0e
0f
0g
0h
0i
0j
0k
0l
0m
0n
0o
0p
0q
0r
0s
0t
0u
0v
0w
0x
0y
0z
0{
0|
0}
0~
0!!
0"!
0#!
0$!
0%!
0&!
0'!
0(!
0)!
0*!
0+!
0,!
0-!
0.!
0/!
00!
01!
02!
03!
04!
05!
06!
07!
08!
09!
0:!
0;!
0<!
0=!
0>!
0?!
0@!
0A!
0B!
0C!
0D!
0E!
0F!
0G!
0H!
0I!
0J!
0K!
0L!
0M!
0N!
0O!
0P!
0Q!
0R!
0S!
0T!
0U!
0V!
0W!
0X!
0Y!
0Z!
0[!
0\!
0]!
0^!
0_!
0`!
0a!
0b!
0c!
0d!
0e!
0f!
0g!
0h!
0i!
0j!
0k!
0l!
0m!
0n!
0o!
0p!
0q!
0r!
0s!
0t!
0u!
0v!
0w!
0x!
0y!
0z!
0{!
0|!
0}!
0~!
0!"
0""
0#"
0$"
0%"
0&"
0'"
0("
0)"
0*"
0+"
0,"
0-"
0."
0/"
00"
01"
02"
03"
04"
05"
06"
07"
08"
09"
0:"
0;"
0<"
0="
0>"
0?"
0@"
0A"
0B"
0C"
0D"
0E"
0F"
0G"
0H"
0I"
$end
#10000
1(
10
1B!
19!
1H"
1U
1?
#20000
1'
1/
0(
00
1.!
17!
0B!
09!
1<"
0H"
0U
0?
1="
1S
1=
#30000
1(
10
1B!
19!
1D"
1?"
1H"
1U
1G"
1?
1I"
0H"
0U
1V
1@
0?
#40000
1&
1.
0'
0/
0(
00
1~
1&!
0.!
07!
0B!
09!
1("
1~!
0?"
0<"
0D"
0I"
1H"
1U
0V
0G"
0@
1?
1$"
0="
0S
1Q
1;
0=
0H"
0U
0?
#50000
1(
10
1B!
19!
1@"
1;"
13"
1H"
1U
1>"
1?
1E"
1T
1>
#60000
1'
1/
0(
00
1.!
17!
0B!
09!
1<"
15"
11"
1&"
0@"
0;"
03"
0H"
0U
0>"
16"
0?
1="
1S
1A"
1;"
1=
0E"
0T
1C"
0>
0="
0S
0=
1E"
1T
1>
#70000
1(
10
1B!
19!
1F"
1D"
1@"
0;"
1?"
13"
1H"
1U
1>"
1?
1I"
0H"
0U
1V
1G"
1@
0?
0E"
0T
0>
1H"
1U
1?
#80000
1%
1-
0&
0.
0'
0/
0(
00
1n
1l
0~
0&!
0.!
07!
0B!
09!
1`!
1\!
03"
0("
0&"
0~!
0@"
1;"
05"
01"
0?"
0<"
0F"
0D"
0H"
0U
1]!
0>"
06"
0A"
0?
1="
0$"
0I"
1H"
1U
0V
0Q
1S
0G"
0;"
0C"
1=
0;
0@
1?
1_!
1E"
1T
1O
19
1>
0H"
0="
0E"
0T
0S
0U
0?
0=
0>
#90000
1(
10
1B!
19!
17"
10"
1%"
1H"
1U
11"
1?
12"
1R
14"
1<
02"
0R
0<
1="
1S
1=
#100000
1'
1/
0(
00
1.!
17!
0B!
09!
1<"
1*"
1}!
1""
07"
00"
0%"
0H"
0U
1>"
1)"
1~!
01"
04"
0?
0="
1$"
12"
1R
1Q
0S
11"
0>"
0=
1;
1<
1E"
0$"
02"
1="
1S
0R
0Q
1T
1>
0;
0<
1=
12"
0E"
0T
1R
1<
0>
#110000
1(
10
1B!
19!
1D"
17"
10"
1?"
1%"
1H"
1U
1G"
16"
01"
14"
1?
02"
0R
1A"
1;"
04"
1>"
0<
1I"
0H"
12"
0="
0S
1R
0U
1V
1F"
1C"
0>"
1@
0?
1<
0=
1E"
1T
0G"
1>
1H"
1U
1?
0H"
0U
0?
#120000
1&
1.
0'
0/
0(
00
1~
1&!
0.!
07!
0B!
09!
1("
0~!
1y!
1j!
1q!
1l!
0?"
0<"
0*"
0}!
0F"
0D"
0""
07"
00"
0%"
0I"
1H"
1U
0V
0)"
1|!
0l!
0A"
1~!
06"
11"
0@
1?
1p!
1="
0H"
02"
0R
0U
1S
1P
01"
1+"
1}!
0C"
0;"
1:
1=
0?
0<
0p!
1$"
12"
1R
1Q
0P
10"
0~!
0:
1;
1<
02"
0E"
0="
0S
0T
0R
11"
0<
0>
0=
0$"
0Q
0;
12"
1R
1<
#130000
1(
10
1B!
19!
1@"
1;"
17"
00"
13"
1%"
1H"
1U
1>"
18"
01"
14"
1?
02"
0R
1B"
1:"
04"
0<
1E"
12"
1="
1S
1R
1T
1C"
0;"
1>
1<
1=
0="
0S
1G"
0>"
0=
0E"
1="
1S
0T
0G"
0>
1=
1I"
0H"
1E"
1T
0U
1V
1@
0?
1>
0I"
1H"
1U
0V
0@
1?
#140000
1'
1/
0(
00
1.!
17!
0B!
09!
1<"
15"
11"
1*"
0}!
1&"
1""
0B"
0@"
1;"
07"
10"
03"
0%"
0H"
0U
1A"
1)"
1~!
0C"
01"
0?
0="
02"
1$"
1Q
0R
0S
1C"
16"
11"
0=
0<
1;
0$"
0E"
12"
1R
0T
0Q
0;"
0;
0>
1<
1E"
02"
0R
1T
1>
0<
1="
1S
1=
#150000
1(
10
1B!
19!
1F"
1D"
1B"
1@"
1;"
17"
00"
1?"
13"
1%"
1H"
1U
0C"
01"
1?
1I"
0H"
12"
1R
0U
1V
1G"
14"
1@
0?
1<
0E"
02"
0R
0T
1>"
0>
0<
1H"
0="
0S
1U
1?
0=
1E"
1T
1>
#160000
1$
1,
0%
0-
0&
0.
0'
0/
0(
00
1f
1j
0n
0l
0~
0&!
0.!
07!
0B!
09!
1)!
0%"
0""
0q!
1l!
0`!
0\!
07"
10"
0*"
1}!
0y!
0j!
03"
0("
0&"
0~!
0B"
0@"
0;"
05"
11"
0?"
0<"
0D"
0H"
0U
13!
04"
0)"
0|!
0]!
08"
01"
0+"
1~!
0l!
0>"
0F"
1C"
0G"
0?
12"
1p!
1="
1S
1P
1R
16!
06"
11"
0}!
0:"
00"
1<
1:
1=
0="
0_!
02"
1$"
0p!
0I"
0V
0P
1Q
0R
0O
0S
0A"
0~!
01"
0=
09
0<
1;
0:
0@
18!
12"
1R
1M
0C"
17
1<
0$"
02"
0R
0Q
0;
0<
0E"
0T
0>
#170000
1(
10
1B!
19!
1-"
1{!
1#"
1H"
1U
1}!
1?
1$"
1Q
1~!
1;
1'"
0$"
0Q
0;
12"
1R
1<
#180000
1'
1/
0(
00
1.!
17!
0B!
09!
1<"
1v!
1i!
1n!
0-"
0{!
0#"
0H"
0U
1j!
0}!
0'"
0?
1="
1p!
1$"
1Q
1P
1S
1r!
1l!
0~!
1=
1:
1;
02"
0R
1~!
0<
0p!
0$"
0Q
0P
0:
0;
1$"
1Q
1;
#190000
1(
10
1B!
19!
1D"
1-"
1{!
1?"
1#"
1H"
1U
1G"
1}!
1'"
1?
0$"
0Q
1)"
0~!
0;
1I"
0H"
12"
1R
0U
1V
11"
0'"
1@
0?
1<
1$"
1Q
1;
#200000
1&
1.
0'
0/
0(
00
1~
1&!
0.!
07!
0B!
09!
1("
1~!
1e!
1[!
1O!
0?"
0<"
0v!
0i!
0D"
0n!
0-"
0{!
0#"
0I"
1H"
1U
0V
0)"
1a!
1\!
1]!
0G"
0j!
0r!
0}!
0@
1?
0="
1p!
1P
0S
01"
1j!
0]!
0l!
0=
1:
1_!
0H"
0U
1O
1l!
19
0?
02"
0_!
0p!
0P
0O
0R
0<
09
0:
1p!
1P
1:
#210000
1(
10
1B!
19!
1@"
1;"
1-"
1{!
13"
1#"
1H"
1U
1>"
1+"
1}!
1'"
1?
0$"
0Q
10"
0~!
0;
1E"
12"
1R
1T
11"
0'"
1>
1<
1$"
1Q
1;
#220000
1'
1/
0(
00
1.!
17!
0B!
09!
1<"
15"
01"
1v!
1i!
1&"
1n!
0@"
0;"
0-"
0{!
03"
0#"
0H"
0U
0>"
18"
1|!
0j!
1r!
0+"
0}!
0?
1="
0p!
0$"
0Q
0P
1S
1:"
1+"
1}!
0r!
0l!
1)"
08"
00"
1=
0:
0;
0E"
0T
1A"
1;"
18"
10"
0)"
16"
0:"
0>
1p!
1P
1C"
1:"
06"
1:
0="
0S
0=
1E"
1T
1>
#230000
1(
10
1B!
19!
1F"
1D"
1B"
1@"
0;"
1-"
1{!
1?"
13"
1#"
1H"
1U
0C"
0A"
1>"
0}!
1?
1I"
0H"
1$"
1Q
0U
1V
1G"
1C"
1~!
1@
0?
1;
1'"
1H"
0E"
0$"
0Q
0T
1U
14"
1?
0>
0;
02"
0R
0<
1="
1S
1=
#240000
1%
1-
0&
0.
0'
0/
0(
00
1n
1l
0~
0&!
0.!
07!
0B!
09!
1`!
0\!
1R!
1G!
1I!
03"
0("
0&"
0~!
0e!
0[!
0B"
0@"
1;"
05"
11"
0O!
0?"
0<"
0v!
0i!
0F"
0D"
0n!
0-"
0{!
0#"
0H"
0U
0a!
1Z!
0+"
0'"
1\!
0C"
08"
0|!
1j!
1}!
0?
0="
0I"
1H"
0p!
0P
1U
0V
0S
0j!
1h!
1[!
00"
04"
1]!
0G"
0:"
0}!
1l!
1~!
0=
0@
1?
0:
12"
1E"
1T
1R
0l!
1i!
0\!
01"
0>"
0;"
0~!
1<
1>
1="
1_!
0H"
1p!
1$"
1Q
1P
0U
1O
1S
1j!
0]!
1=
19
0?
1:
1;
0p!
02"
0E"
0="
0$"
0Q
0S
0T
0R
0P
1l!
0:
0<
0>
0=
0;
0_!
0O
09
1p!
1P
1:
#250000
1(
10
1B!
19!
17"
10"
1-"
1{!
1%"
1#"
1H"
1U
11"
1}!
1?
12"
1$"
1Q
1R
14"
1~!
1<
1;
02"
0R
1'"
0<
1="
0$"
0Q
1S
1=
0;
12"
1R
1<
#260000
1'
1/
0(
00
1.!
17!
0B!
09!
1<"
1*"
0}!
1v!
0i!
1""
1n!
07"
00"
0-"
0{!
0%"
0#"
0H"
0U
1>"
0~!
1z!
0j!
0'"
1r!
01"
1}!
0?
0="
0p!
02"
0R
0P
0S
1."
1{!
0r!
0l!
04"
1)"
0=
0:
0<
1E"
1$"
1Q
1T
1/"
0}!
1~!
0>"
11"
1>
1;
1p!
1="
1S
1P
10"
0)"
0~!
1:
1=
0$"
0E"
12"
1R
0T
0Q
0;
0>
1<
1$"
1Q
1;
#270000
1(
10
1B!
19!
1D"
19"
17"
00"
1-"
0{!
1?"
1%"
1#"
1H"
1U
1G"
1:"
01"
1}!
14"
1'"
1?
02"
0$"
0Q
0R
1A"
1;"
1)"
1~!
1>"
0<
0;
1I"
0H"
0="
0S
0U
1V
1F"
1C"
0>"
11"
0'"
1@
0?
0=
1="
1$"
1E"
1T
1Q
1S
0G"
1=
1;
1>
1H"
1U
1?
0H"
0U
0?
#280000
1&
1.
0'
0/
0(
00
1~
1&!
0.!
07!
0B!
09!
1("
0~!
1y!
1j!
1e!
0[!
1q!
1l!
1O!
0?"
0<"
0*"
0}!
0v!
1i!
0F"
0D"
0""
0n!
09"
07"
10"
0-"
1{!
0%"
0#"
0I"
1H"
1U
0V
1+"
0)"
0l!
1a!
1\!
1]!
0A"
1>"
0."
1~!
0j!
0:"
16"
01"
1}!
04"
0@
1?
0$"
0="
0H"
12"
1R
0U
0S
0Q
18"
00"
06"
11"
1|!
1j!
0]!
0C"
1G"
0/"
1l!
0~!
0>"
0;
0=
0?
1<
0p!
1_!
0E"
1$"
02"
1="
1S
0R
1Q
0T
1O
0P
1:"
01"
0;"
0}!
0l!
0G"
08"
10"
0:
19
0>
1;
0<
1=
12"
0_!
1H"
1p!
0$"
0Q
1P
1U
0O
1R
1;"
1~!
0:"
11"
1<
09
1?
1:
0;
02"
0="
0p!
0H"
0U
0P
0S
0R
0;"
0<
0=
0:
0?
1="
1$"
12"
1R
1Q
1S
1=
1;
1<
0="
0S
0=
#290000
1(
10
1B!
19!
1@"
1;"
17"
00"
1-"
0{!
13"
1%"
1#"
1H"
1U
1>"
18"
01"
1."
1}!
14"
1'"
1?
02"
0$"
0Q
0R
1B"
1:"
19"
1/"
0~!
0<
0;
1E"
1="
1S
1T
1C"
0;"
0:"
08"
10"
0'"
1>
1=
1$"
1Q
1G"
1;"
1:"
11"
04"
1;
0E"
0="
12"
1R
0S
0T
0;"
14"
0>
0=
1<
1I"
0H"
02"
0R
0U
1V
1@
0?
0<
#300000
1'
1/
0(
00
1.!
17!
0B!
09!
1<"
15"
01"
1*"
0}!
1v!
0i!
1&"
1""
1n!
0B"
0@"
1;"
09"
07"
00"
0-"
1{!
03"
0%"
0#"
0I"
1H"
1U
0V
1A"
0>"
18"
16"
04"
1)"
1~!
0j!
0C"
0:"
11"
1}!
0@
1?
1="
12"
1p!
1P
1R
1S
1C"
0G"
1:"
01"
1r!
1l!
0)"
0~!
1=
1<
1:
0="
0$"
02"
0R
0Q
0S
0;"
1)"
1~!
11"
0=
0;
0<
1E"
0H"
12"
0p!
1$"
1Q
0P
1R
0U
1T
01"
1>
0?
1<
0:
1;
1="
0$"
02"
0R
0Q
1S
1=
0;
0<
12"
1R
1<
#310000
1(
10
1B!
19!
1F"
1D"
1B"
1@"
1;"
19"
17"
10"
1-"
0{!
1?"
13"
1%"
1#"
1H"
1U
0C"
0:"
11"
0}!
14"
1?
1I"
0H"
02"
1$"
1Q
0R
0U
1V
1G"
0;"
04"
0~!
1>"
1@
0?
0<
1;
0E"
12"
0="
0S
1R
0T
1'"
0>
1<
0=
1H"
0$"
1E"
1T
0Q
1U
14"
1?
0;
1>
02"
0R
0<
1="
1S
1=
#320000
1#
1+
0$
0,
0%
0-
0&
0.
0'
0/
0(
00
1]
1`
0f
0j
0n
0l
0~
0&!
0.!
07!
0B!
09!
1r
1d
0#"
0n!
0O!
0I!
0)!
0-"
1{!
0v!
1i!
0e!
1[!
0R!
0G!
0%"
0""
0q!
0l!
0`!
0\!
09"
07"
00"
0*"
1}!
0y!
1j!
03"
0("
0&"
1~!
0@"
1;"
05"
01"
0?"
0<"
0D"
0H"
0U
1t
0'"
0r!
0a!
0Z!
03!
0."
0}!
0z!
0j!
0h!
1\!
04"
0B"
1:"
06"
11"
0~!
1l!
0A"
0G"
0?
1$"
12"
0="
0S
1R
1Q
1v
0)"
0|!
1j!
0[!
06!
0/"
0{!
0l!
0i!
1]!
0>"
0F"
1;
1<
0=
1="
0$"
1p!
0I"
1H"
1U
0V
1P
0Q
1S
01"
0+"
1l!
0\!
08"
10"
0j!
1=
0;
1:
0@
1?
1w
08!
0p!
1_!
0E"
0H"
0U
0T
1O
0P
0M
1K
00"
0]!
0:"
11"
0l!
15
07
0:
19
0>
0?
02"
1p!
1P
0R
01"
0;"
0<
1:
0_!
12"
0p!
0P
1R
0O
09
1<
0:
02"
0="
0S
0R
0<
0=
#330000
1(
10
1B!
19!
1s!
1g!
1m!
1H"
1U
1i!
1?
1p!
1P
1j!
1:
1l!
1!"
0p!
0P
0:
1$"
1Q
1;
#340000
1'
1/
0(
00
1.!
17!
0B!
09!
1<"
1b!
1Y!
1N!
0s!
0g!
0m!
0H"
0U
1[!
1]!
0i!
0!"
0?
1="
1p!
1P
1S
1\!
0j!
1=
1:
1_!
0$"
0Q
1O
1k!
0]!
0l!
19
0;
1l!
0_!
0p!
0P
0O
09
0:
1p!
1P
1:
#350000
1(
10
1B!
19!
1D"
1s!
1g!
1?"
1m!
1H"
1U
1G"
1i!
1!"
1?
0p!
0P
1j!
0:
1I"
0H"
1$"
1Q
0U
1V
1r!
0l!
1@
0?
1;
1~!
0!"
1p!
1P
1:
#360000
1&
1.
0'
0/
0(
00
1~
1&!
0.!
07!
0B!
09!
1("
0~!
1S!
1E!
1<!
0?"
0<"
0b!
0Y!
0D"
0N!
0s!
0g!
0m!
0I"
1H"
1U
0V
1)"
1G!
1J!
0G"
0[!
0k!
1]!
0i!
0@
1?
0$"
0="
0p!
0P
0S
0Q
11"
1Q!
0J!
1K!
0\!
0r!
1l!
0j!
0;
0=
0:
0H"
1_!
1O
0U
1\!
0K!
0]!
0)"
1~!
0l!
0?
19
12"
1L!
1p!
1P
1N
1R
1]!
01"
1<
18
1:
0_!
0L!
1$"
0p!
0P
1Q
0N
0O
09
08
1;
0:
1_!
02"
0R
1O
19
0<
#370000
1(
10
1B!
19!
1@"
1;"
1s!
1g!
13"
1m!
1H"
1U
1>"
1i!
1?
1p!
1P
1j!
1:
1E"
1T
1l!
1>
1!"
0p!
0P
1'"
0:
0$"
0Q
0;
12"
1R
1<
#380000
1'
1/
0(
00
1.!
17!
0B!
09!
1<"
15"
11"
1b!
1Y!
1&"
1N!
0@"
0;"
0s!
0g!
03"
0m!
0H"
0U
0>"
16"
1[!
1k!
0]!
0i!
0!"
0?
1="
1p!
1P
1S
1A"
1;"
1a!
0\!
1r!
0l!
0j!
0'"
1=
1:
0E"
0_!
1$"
1Q
0O
0T
1C"
1j!
0k!
1]!
1)"
0~!
0r!
1l!
0>
09
1;
0="
0p!
02"
0R
0P
0S
01"
0)"
1~!
0=
0:
0<
1E"
1_!
0$"
1p!
1P
0Q
1O
1T
11"
1>
19
0;
1:
12"
1$"
1Q
1R
1<
1;
02"
0R
0<
#390000
1(
10
1B!
19!
1F"
1D"
1@"
0;"
1s!
1g!
1?"
13"
1m!
1H"
1U
1>"
1i!
1!"
1?
1I"
0H"
0p!
0P
0U
1V
1G"
1|!
0j!
1'"
1@
0?
0:
0E"
0$"
0Q
0T
1+"
1}!
0l!
0>
0;
1H"
12"
1R
1U
18"
10"
0~!
0!"
1?
1<
1p!
1P
1B"
1:"
06"
01"
0'"
1:
0C"
0A"
1C"
1E"
1T
1>
0E"
0T
0>
#400000
1%
1-
0&
0.
0'
0/
0(
00
1n
1l
0~
0&!
0.!
07!
0B!
09!
1`!
1\!
1=!
12!
1*!
03"
0("
0&"
1~!
0S!
0E!
0B"
0@"
1;"
05"
11"
0<!
0?"
0<"
0b!
0Y!
0F"
0D"
0N!
0s!
0g!
0m!
0H"
0U
0a!
1F!
0>"
0+"
0G!
0C"
08"
0Q!
1J!
0[!
0i!
0?
1="
1$"
0I"
1H"
0p!
0P
1U
0V
1Q
1S
0|!
1G!
0G"
00"
0J!
0:"
1K!
1=
1;
0@
1?
0:
0}!
1J!
01"
0K!
0;"
0H"
1L!
1N
0U
0~!
1K!
0?
18
02"
0L!
0="
0S
0N
0R
0<
08
0=
0$"
1L!
1N
0Q
0;
18
#410000
1(
10
1B!
19!
17"
10"
1s!
1g!
1%"
1m!
1H"
1U
11"
1i!
1?
12"
1p!
1P
1R
14"
1j!
1<
1:
02"
0R
1l!
0<
1="
1S
1!"
1=
0p!
0P
0:
1$"
1Q
1;
